{
  "kind": "youtube#activityListResponse",
  "etag": "uqN8LNZagfIulvzrf3oOSuQQ4QI",
  "items": [
    {
      "kind": "youtube#activity",
      "etag": "rfT6k0C7iBQ6WRdMoulDLtm8plQ",
      "id": "MTUxNjAyNTE4NDEzNjc3NzUzNjAwMDYwOTY=",
      "contentDetails": {
        "upload": {
          "videoId": "youtube-video-id-7"
        }
      }
    },
    {
      "kind": "youtube#activity",
      "etag": "4pGZJZpfnXm70dvNSS1ud5eBQfo",
      "id": "MTMxNjAyNDM2MzYzNjc3NzUzNjAwMDcyNDg=",
      "contentDetails": {
        "subscription": {
          "resourceId": {
            "kind": "youtube#channel",
            "channelId": "Subscription-channel-id-3"
          }
        }
      }
    },
    {
      "kind": "youtube#activity",
      "etag": "XbETHoPe8jN9mRloAGnBoA8E4zA",
      "id": "MTMxNjAyNDI2MTYxNjc3NzUzNjAwMDQ0OTY=",
      "contentDetails": {
        "subscription": {
          "resourceId": {
            "kind": "youtube#channel",
            "channelId": "Subscription-channel-id-4"
          }
        }
      }
    },
    {
      "kind": "youtube#activity",
      "etag": "hfjc3gcnVTxEQQzDKamiQy0c3xU",
      "id": "MTUxNjAxOTEzNjEyNjc3NzUzNjAwMDc2OTY=",
      "contentDetails": {
        "upload": {
          "videoId": "youtube-video-id-8"
        }
      }
    },
    {
      "kind": "youtube#activity",
      "etag": "H8-zCWn_PU_rSgr1d5tuKb8uxdE",
      "id": "MTE2MDE4MjUyNDA2Nzc3NTM2MDAwNzQ0MA==",
      "contentDetails": {
        "playlistItem": {
          "resourceId": {
            "kind": "youtube#video",
            "videoId": "youtube-video-id-8"
          },
          "playlistId": "youtube-playlist-id-1",
          "playlistItemId": "youtube-playlist-item-id-1"
        }
      }
    }
  ],
  "nextPageToken": "CAUQAA",
  "pageInfo": {
    "totalResults": 6,
    "resultsPerPage": 5
  }
}